-------------------------------------------------------------------------------
Test set: cz.cvut.zks.SampleTest
-------------------------------------------------------------------------------
Tests run: 1, Failures: 0, Errors: 0, Skipped: 0, Time elapsed: 7.92 sec
